[gd_scene load_steps=3 format=2]

[ext_resource path="res://entities/husband_part/husband_part.gd" type="Script" id=1]
[ext_resource path="res://Assets/part_textures/heads/capybara_head.png" type="Texture" id=2]

[node name="capybara_head" type="Node2D"]
script = ExtResource( 1 )
part_name = "Chill Capybara head"
price = 5
values = {
0: 0,
1: 1,
2: 1
}
part_image = ExtResource( 2 )
