[gd_resource type="DynamicFont" load_steps=2 format=2]

[ext_resource path="res://Assets/fonts/CatShop.ttf" type="DynamicFontData" id=1]

[resource]
size = 15
extra_spacing_top = 5
extra_spacing_space = 2
font_data = ExtResource( 1 )
