[gd_scene load_steps=3 format=2]

[ext_resource path="res://entities/husband_part/husband_part.gd" type="Script" id=1]
[ext_resource path="res://Assets/part_textures/bodies/flamingo_body.png" type="Texture" id=2]

[node name="flamingo_body" type="Node2D"]
script = ExtResource( 1 )
part_name = "Limping Flamingo body"
price = 7
part_type = 1
values = {
0: 0,
1: 3,
2: 3
}
part_image = ExtResource( 2 )
