[gd_scene load_steps=4 format=2]

[ext_resource path="res://entities/store/store_bg.tscn" type="PackedScene" id=1]
[ext_resource path="res://entities/store/store.gd" type="Script" id=3]

[sub_resource type="NavigationPolygon" id=1]
vertices = PoolVector2Array( 520, 544, 360, 544, 216, 528, 248, 528, 520, 320, 504, 528, 504, 336, 152, 320, 456, 336, 456, 528, 424, 528, 424, 336, 376, 336, 360, 632, 704, 632, 704, 648, -32, 648, -32, 632, 312, 632, 312, 544, 152, 544, 168, 528, 168, 336, 216, 336, 376, 528, 296, 528, 296, 336, 248, 336 )
polygons = [ PoolIntArray( 0, 1, 2, 3 ), PoolIntArray( 4, 0, 5, 6 ), PoolIntArray( 7, 4, 6, 8 ), PoolIntArray( 8, 9, 10, 11 ), PoolIntArray( 7, 8, 11 ), PoolIntArray( 7, 11, 12 ), PoolIntArray( 13, 14, 15, 16 ), PoolIntArray( 16, 17, 18 ), PoolIntArray( 13, 16, 18 ), PoolIntArray( 1, 13, 18, 19 ), PoolIntArray( 2, 1, 19 ), PoolIntArray( 2, 19, 20, 21 ), PoolIntArray( 21, 20, 7, 22 ), PoolIntArray( 9, 5, 0 ), PoolIntArray( 23, 22, 7 ), PoolIntArray( 10, 9, 0 ), PoolIntArray( 24, 10, 0 ), PoolIntArray( 24, 0, 25 ), PoolIntArray( 12, 24, 25, 26 ), PoolIntArray( 7, 12, 26 ), PoolIntArray( 7, 26, 27 ), PoolIntArray( 23, 7, 27 ), PoolIntArray( 23, 27, 3, 2 ), PoolIntArray( 0, 3, 25 ) ]
outlines = [ PoolVector2Array( 152, 320, 152, 544, 312, 544, 312, 632, -32, 632, -32, 648, 704, 648, 704, 632, 360, 632, 360, 544, 520, 544, 520, 320 ), PoolVector2Array( 168, 336, 216, 336, 216, 528, 168, 528 ), PoolVector2Array( 248, 336, 296, 336, 296, 528, 248, 528 ), PoolVector2Array( 376, 336, 424, 336, 424, 528, 376, 528 ), PoolVector2Array( 456, 336, 504, 336, 504, 528, 456, 528 ) ]

[node name="Store" type="Node2D"]
script = ExtResource( 3 )
navigation_path = NodePath("StoreNavigation/StorePath")
upper_corner_path = NodePath("StoreNavigation/StoreUpperCorner")
lower_corner_path = NodePath("StoreNavigation/StoreLowerCorner")
left_exit_path = NodePath("StoreNavigation/StoreLeftExit")
right_exit_path = NodePath("StoreNavigation/StoreRightExit")

[node name="StoreBG" parent="." instance=ExtResource( 1 )]

[node name="StoreNavigation" type="Node2D" parent="."]

[node name="StorePath" type="Navigation2D" parent="StoreNavigation"]

[node name="Walkable" type="NavigationPolygonInstance" parent="StoreNavigation/StorePath"]
navpoly = SubResource( 1 )

[node name="StoreUpperCorner" type="Position2D" parent="StoreNavigation"]
position = Vector2( 112, 304 )

[node name="StoreLowerCorner" type="Position2D" parent="StoreNavigation"]
position = Vector2( 560, 544 )

[node name="StoreLeftExit" type="Position2D" parent="StoreNavigation"]
position = Vector2( -24, 648 )

[node name="StoreRightExit" type="Position2D" parent="StoreNavigation"]
position = Vector2( 696, 648 )
