[gd_scene load_steps=3 format=2]

[ext_resource path="res://entities/store/husband_stand/husband_particles.gd" type="Script" id=1]

[sub_resource type="ParticlesMaterial" id=1]
render_priority = 1
lifetime_randomness = 0.5
emission_shape = 1
emission_sphere_radius = 1.0
flag_disable_z = true
direction = Vector3( 0, 0, 0 )
spread = 180.0
gravity = Vector3( 0, 100, 0 )
initial_velocity = 100.0
initial_velocity_random = 0.5
orbit_velocity = 0.0
orbit_velocity_random = 0.0
linear_accel = -200.0
linear_accel_random = 0.2
damping = 5.0
scale = 3.0
color = Color( 1, 1, 0.509804, 1 )

[node name="husband_particles" type="Particles2D"]
amount = 10
lifetime = 0.5
explosiveness = 1.0
process_material = SubResource( 1 )
script = ExtResource( 1 )
particle_lifetime = 0.5

[node name="timer" type="Timer" parent="."]
wait_time = 0.5
one_shot = true

[connection signal="timeout" from="timer" to="." method="_on_timer_timeout"]
