{
	"strength": [
		"Fitness influencer Bonobo BamBam says 'muscles are hot right now'.",
		"Crimes go up in the jungle. Stay close to someone strong.",
		"Larry Lobster on new bodybuilding routine: 'Every husband should try'."
		],
	"charm": [
		"Goosip magazine shows animals want charming husbands.",
		"'Charismatic' is the most desired trait on Growler profiles.",
		"Keanu Reefs wins Oscar and proves being charming is the key to success."
		],
	"beauty": [
		"Popstar Sextina Aquafina releases single 'Gotta be Prretty'.",
		"Brad Pitbull's new look make animals ditch non-handsome husbands.",
		"Dr. Phish Surgeon's plastic surgeries make everyone demand good looks."
		]
}
